…
```
## `summarise()` has grouped output by 'genre'. You can override using the
## `.groups` argument.
```

```
## # A tibble: 24 × 4
## # Groups:   genre [14]
##    genre     test  count_each  prop
##    <chr>     <fct>      <int> <dbl>
##  1 Action    Fail         260 0.707
##  2 Action    Pass         108 0.293
##  3 Adventure Fail          52 0.559
##  4 Adventure Pass          41 0.441
##  5 Animation Fail          63 0.677
##  6 Animation Pass          30 0.323
##  7 Biography Fail          36 0.554
##  8 Biography Pass          29 0.446
##  9 Comedy    Fail         138 0.427
## 10 Comedy    Pass         185 0.573
## # ℹ 14 more rows
```
…
```r
bechdel %>% 
  group_by(genre, test) %>%
  summarise(n = n()) %>% 
  mutate(prop = n/sum(n))
```

```
## `summarise()` has grouped output by 'genre'. You can override using the
## `.groups` argument.
```

```
## # A tibble: 24 × 4
## # Groups:   genre [14]
##    genre     test      n  prop
##    <chr>     <fct> <int> <dbl>
##  1 Action    Fail    260 0.707
##  2 Action    Pass    108 0.293
##  3 Adventure Fail     52 0.559
##  4 Adventure Pass     41 0.441
##  5 Animation Fail     63 0.677
##  6 Animation Pass     30 0.323
##  7 Biography Fail     36 0.554
##  8 Biography Pass     29 0.446
##  9 Comedy    Fail    138 0.427
## 10 Comedy    Pass    185 0.573
## # ℹ 14 more rows
```
…
```r
# Show performance for every single fold:
log_res %>%  collect_metrics(summarize = FALSE)
```

```
## # A tibble: 24 × 5
##    id    .metric   .estimator .estimate .config             
##    <chr> <chr>     <chr>          <dbl> <chr>               
##  1 Fold1 recall    binary        0.184  Preprocessor1_Model1
##  2 Fold1 precision binary        0.463  Preprocessor1_Model1
##  3 Fold1 f_meas    binary        0.264  Preprocessor1_Model1
##  4 Fold1 accuracy  binary        0.430  Preprocessor1_Model1
##  5 Fold1 kap       binary       -0.0751 Preprocessor1_Model1
##  6 Fold1 sens      binary        0.184  Preprocessor1_Model1
##  7 Fold1 spec      binary        0.735  Preprocessor1_Model1
##  8 Fold1 roc_auc   binary        0.464  Preprocessor1_Model1
##  9 Fold2 recall    binary        0.485  Preprocessor1_Model1
## 10 Fold2 precision binary        0.515  Preprocessor1_Model1
## # ℹ 14 more rows
```
…
